other/esp_tpu/sim/testbenches/pool_tb.vcd
$date
	Sun Feb 16 17:39:25 2025
$end

$version
	Synopsys VCS version U-2023.03-SP2-1_Full64
$end

$timescale
	1ps
$end

$comment Csum: 1 68dd19e5faf631fb $end


$scope module pool_tb $end
$var reg 1 ! clk $end
$var reg 1 " reset $end
$var reg 1 # enable_pool $end
$var reg 1 $ in_data_available $end
$var reg 3 % pool_window_size [2:0] $end
$var reg 128 & inp_data [127:0] $end
$var reg 16 ' validity_mask [15:0] $end
$var wire 128 ( out_data [127:0] $end
$var wire 1 ) out_data_available $end
$var wire 1 * done_pool $end
$var reg 32 + cycle_count [31:0] $end

$scope task display_arrays $end
$var reg 128 , msg [127:0] $end

$scope begin unnamed$$_0 $end
$upscope $end


$scope begin unnamed$$_1 $end
$upscope $end

$upscope $end


$scope begin unnamed$$_0 $end
$upscope $end


$scope begin unnamed$$_1 $end
$upscope $end


$scope begin unnamed$$_2 $end
$upscope $end


$scope module u_pool $end
$var wire 1 - enable_pool $end
$var wire 1 . in_data_available $end
$var wire 3 / pool_window_size [2:0] $end
$var wire 128 0 inp_data [127:0] $end
$var wire 128 ( out_data [127:0] $end
$var wire 1 ) out_data_available $end
$var wire 16 1 validity_mask [15:0] $end
$var wire 1 * done_pool $end
$var wire 1 2 clk $end
$var wire 1 3 reset $end
$var reg 1 4 in_data_available_flopped $end
$var reg 128 5 inp_data_flopped [127:0] $end
$var reg 128 6 out_data_temp [127:0] $end
$var reg 1 7 done_pool_temp $end
$var reg 1 8 out_data_available_temp $end
$var reg 32 9 i [31:0] $end
$var reg 32 : j [31:0] $end
$var reg 32 ; cycle_count [31:0] $end
$var wire 16 < dummy [15:0] $end
$upscope $end

$upscope $end

$enddefinitions $end

#0
$dumpvars
0!
1*
x7
0#
0$
x4
x)
x8
1"
0-
0.
13
b00000000000000000000000000000000 +
bxxxxxxxxxxxxxxxxxxxxxxxxxxxxxxxxxxxxxxxxxxxxxxxxxxxxxxxxxxxxxxxxxxxxxxxxxxxxxxxxxxxxxxxxxxxxxxxxxxxxxxxxxxxxxxxxxxxxxxxxxxxxxxxx ,
b1111111111111111 <
b00000000000000000000000000000000000000000000000000000000000000000000000000000000000000000000000000000000000000000000000000000000 &
bxxxxxxxxxxxxxxxxxxxxxxxxxxxxxxxxxxxxxxxxxxxxxxxxxxxxxxxxxxxxxxxxxxxxxxxxxxxxxxxxxxxxxxxxxxxxxxxxxxxxxxxxxxxxxxxxxxxxxxxxxxxxxxxx 5
bxxxxxxxxxxxxxxxxxxxxxxxxxxxxxxxx :
bxxxxxxxxxxxxxxxxxxxxxxxxxxxxxxxxxxxxxxxxxxxxxxxxxxxxxxxxxxxxxxxxxxxxxxxxxxxxxxxxxxxxxxxxxxxxxxxxxxxxxxxxxxxxxxxxxxxxxxxxxxxxxxxx (
bxxxxxxxxxxxxxxxxxxxxxxxxxxxxxxxxxxxxxxxxxxxxxxxxxxxxxxxxxxxxxxxxxxxxxxxxxxxxxxxxxxxxxxxxxxxxxxxxxxxxxxxxxxxxxxxxxxxxxxxxxxxxxxxx 6
b001 %
bxxxxxxxxxxxxxxxxxxxxxxxxxxxxxxxx ;
bxxxxxxxxxxxxxxxxxxxxxxxxxxxxxxxx 9
b00000000000000000000000000000000000000000000000000000000000000000000000000000000000000000000000000000000000000000000000000000000 0
b001 /
b1111111111111111 1
b1111111111111111 '
02
$end
#5000
1!
12
b00000000000000000000000000000000000000000000000000000000000000000000000000000000000000000000000000000000000000000000000000000000 6
07
08
b00000000000000000000000000000000 ;
04
b00000000000000000000000000000000000000000000000000000000000000000000000000000000000000000000000000000000000000000000000000000000 5
b00000000000000000000000000000000000000000000000000000000000000000000000000000000000000000000000000000000000000000000000000000000 (
0)
#10000
0!
02
#15000
1!
12
#20000
0!
02
#25000
1!
12
#30000
0!
02
#35000
1!
12
#40000
0!
02
#45000
1!
12
#50000
0!
02
#55000
1!
12
#60000
0!
02
#65000
1!
12
#70000
0!
02
#75000
1!
12
#80000
0!
02
#85000
1!
12
#90000
0!
02
#95000
1!
12
#100000
0"
03
0!
02
#105000
1!
12
b00000000000000000000000000000001 +
#110000
0!
02
#115000
1!
12
b00000000000000000000000000000010 +
#120000
1$
1.
b010 %
b010 /
b00010000000011110000111000001101000011000000101100001010000010010000100000000111000001100000010100000100000000110000001000000001 &
b00010000000011110000111000001101000011000000101100001010000010010000100000000111000001100000010100000100000000110000001000000001 0
0!
02
#125000
1!
12
b00000000000000000000000000000011 +
14
b00010000000011110000111000001101000011000000101100001010000010010000100000000111000001100000010100000100000000110000001000000001 5
1)
b00010000000011110000111000001101000011000000101100001010000010010000100000000111000001100000010100000100000000110000001000000001 (
#130000
0!
02
#135000
1!
12
b00000000000000000000000000000100 +
#140000
0$
0.
0!
02
#145000
1!
12
b00000000000000000000000000000101 +
04
0)
#150000
0!
02
#155000
1!
12
b00000000000000000000000000000110 +
#160000
0!
02
#165000
1!
12
b00000000000000000000000000000111 +
#167000
1#
1-
0*
b001 %
b001 /
1$
1.
b00000000000000000000000000000000000000000000000000000000000000000000000000000000000000000000000000000000000000000000000000000000 (
#170000
0!
02
#175000
1!
12
b00000000000000000000000000001000 +
b00000000000000000000000000000001 ;
18
b00010000000011110000111000001101000011000000101100001010000010010000100000000111000001100000010100000100000000110000001000000001 6
1)
b00010000000011110000111000001101000011000000101100001010000010010000100000000111000001100000010100000100000000110000001000000001 (
#180000
0!
02
#185000
1!
12
b00000000000000000000000000001001 +
b00000000000000000000000000000010 ;
#187000
0$
0.
#190000
0!
02
#195000
1!
12
b00000000000000000000000000001010 +
b00000000000000000000000000000000000000000000000000000000000000000000000000000000000000000000000000000000000000000000000000000000 6
08
b00000000000000000000000000000000 ;
b00000000000000000000000000000000000000000000000000000000000000000000000000000000000000000000000000000000000000000000000000000000 (
0)
#200000
0!
02
#205000
1!
12
b00000000000000000000000000001011 +
#210000
0!
02
#215000
1!
12
b00000000000000000000000000001100 +
#220000
0!
02
#225000
1!
12
b00000000000000000000000000001101 +
#230000
0!
02
#235000
1!
12
b00000000000000000000000000001110 +
#240000
0!
02
#245000
1!
12
b00000000000000000000000000001111 +
#250000
0!
02
#255000
1!
12
b00000000000000000000000000010000 +
#260000
0!
02
#265000
1!
12
b00000000000000000000000000010001 +
#270000
0!
02
#275000
1!
12
b00000000000000000000000000010010 +
#280000
0!
02
#285000
1!
12
b00000000000000000000000000010011 +
#290000
0!
02
#295000
1!
12
b00000000000000000000000000010100 +
#300000
0!
02
#305000
1!
12
b00000000000000000000000000010101 +
#310000
0!
02
#315000
1!
12
b00000000000000000000000000010110 +
#320000
0!
02
#325000
1!
12
b00000000000000000000000000010111 +
#330000
0!
02
#335000
1!
12
b00000000000000000000000000011000 +
#340000
0!
02
#345000
1!
12
b00000000000000000000000000011001 +
#350000
0!
02
#355000
1!
12
b00000000000000000000000000011010 +
#360000
0!
02
#365000
1!
12
b00000000000000000000000000011011 +
#370000
0!
02
#375000
1!
12
b00000000000000000000000000011100 +
#380000
0!
02
#385000
1!
12
b00000000000000000000000000011101 +
#390000
0!
02
#395000
1!
12
b00000000000000000000000000011110 +
#400000
0!
02
#405000
1!
12
b00000000000000000000000000011111 +
#410000
0!
02
#415000
1!
12
b00000000000000000000000000100000 +
#420000
0!
02
#425000
1!
12
b00000000000000000000000000100001 +
#430000
0!
02
#435000
1!
12
b00000000000000000000000000100010 +
#440000
0!
02
#445000
1!
12
b00000000000000000000000000100011 +
#450000
0!
02
#455000
1!
12
b00000000000000000000000000100100 +
#460000
0!
02
#465000
1!
12
b00000000000000000000000000100101 +
#470000
0!
02
#475000
1!
12
b00000000000000000000000000100110 +
#480000
0!
02
#485000
1!
12
b00000000000000000000000000100111 +
#490000
0!
02
#495000
1!
12
b00000000000000000000000000101000 +
#500000
0!
02
#505000
1!
12
b00000000000000000000000000101001 +
#510000
0!
02
#515000
1!
12
b00000000000000000000000000101010 +
#520000
0!
02
#525000
1!
12
b00000000000000000000000000101011 +
#530000
0!
02
#535000
1!
12
b00000000000000000000000000101100 +
#540000
0!
02
#545000
1!
12
b00000000000000000000000000101101 +
#550000
0!
02
#555000
1!
12
b00000000000000000000000000101110 +
#560000
0!
02
#565000
1!
12
b00000000000000000000000000101111 +
#570000
0!
02
#575000
1!
12
b00000000000000000000000000110000 +
#580000
0!
02
#585000
1!
12
b00000000000000000000000000110001 +
#590000
0!
02
#595000
1!
12
b00000000000000000000000000110010 +
#600000
0!
02
#605000
1!
12
b00000000000000000000000000110011 +
#610000
0!
02
#615000
1!
12
b00000000000000000000000000110100 +
#620000
0!
02
#625000
1!
12
b00000000000000000000000000110101 +
#630000
0!
02
#635000
1!
12
b00000000000000000000000000110110 +
#640000
0!
02
#645000
1!
12
b00000000000000000000000000110111 +
#650000
0!
02
#655000
1!
12
b00000000000000000000000000111000 +
#660000
0!
02
#665000
1!
12
b00000000000000000000000000111001 +
#670000
0!
02
#675000
1!
12
b00000000000000000000000000111010 +
#680000
0!
02
#685000
1!
12
b00000000000000000000000000111011 +
#690000
0!
02
#695000
1!
12
b00000000000000000000000000111100 +
#700000
0!
02
#705000
1!
12
b00000000000000000000000000111101 +
#710000
0!
02
#715000
1!
12
b00000000000000000000000000111110 +
#720000
0!
02
#725000
1!
12
b00000000000000000000000000111111 +
#730000
0!
02
#735000
1!
12
b00000000000000000000000001000000 +
#740000
0!
02
#745000
1!
12
b00000000000000000000000001000001 +
#750000
0!
02
#755000
1!
12
b00000000000000000000000001000010 +
#760000
0!
02
#765000
1!
12
b00000000000000000000000001000011 +
#770000
0!
02
#775000
1!
12
b00000000000000000000000001000100 +
#780000
0!
02
#785000
1!
12
b00000000000000000000000001000101 +
#790000
0!
02
#795000
1!
12
b00000000000000000000000001000110 +
#800000
0!
02
#805000
1!
12
b00000000000000000000000001000111 +
#810000
0!
02
#815000
1!
12
b00000000000000000000000001001000 +
#820000
0!
02
#825000
1!
12
b00000000000000000000000001001001 +
#830000
0!
02
#835000
1!
12
b00000000000000000000000001001010 +
#840000
0!
02
#845000
1!
12
b00000000000000000000000001001011 +
#850000
0!
02
#855000
1!
12
b00000000000000000000000001001100 +
#860000
0!
02
#865000
1!
12
b00000000000000000000000001001101 +
#870000
0!
02
#875000
1!
12
b00000000000000000000000001001110 +
#880000
0!
02
#885000
1!
12
b00000000000000000000000001001111 +
#890000
0!
02
#895000
1!
12
b00000000000000000000000001010000 +
#900000
0!
02
#905000
1!
12
b00000000000000000000000001010001 +
#910000
0!
02
#915000
1!
12
b00000000000000000000000001010010 +
#920000
0!
02
#925000
1!
12
b00000000000000000000000001010011 +
#930000
0!
02
#935000
1!
12
b00000000000000000000000001010100 +
#940000
0!
02
#945000
1!
12
b00000000000000000000000001010101 +
#950000
0!
02
#955000
1!
12
b00000000000000000000000001010110 +
#960000
0!
02
#965000
1!
12
b00000000000000000000000001010111 +
#970000
0!
02
#975000
1!
12
b00000000000000000000000001011000 +
#980000
0!
02
#985000
1!
12
b00000000000000000000000001011001 +
#990000
0!
02
#995000
1!
12
b00000000000000000000000001011010 +
#1000000
0!
02
#1005000
1!
12
b00000000000000000000000001011011 +
#1010000
0!
02
#1015000
1!
12
b00000000000000000000000001011100 +
#1020000
0!
02
#1025000
1!
12
b00000000000000000000000001011101 +
#1030000
0!
02
#1035000
1!
12
b00000000000000000000000001011110 +
#1040000
0!
02
#1045000
1!
12
b00000000000000000000000001011111 +
#1050000
0!
02
#1055000
1!
12
b00000000000000000000000001100000 +
#1060000
0!
02
#1065000
1!
12
b00000000000000000000000001100001 +
#1070000
0!
02
#1075000
1!
12
b00000000000000000000000001100010 +
#1080000
0!
02
#1085000
1!
12
b00000000000000000000000001100011 +
#1090000
0!
02
#1095000
1!
12
b00000000000000000000000001100100 +
#1100000
0!
02
#1105000
1!
12
b00000000000000000000000001100101 +
#1110000
0!
02
#1115000
1!
12
b00000000000000000000000001100110 +
#1120000
0!
02
#1125000
1!
12
b00000000000000000000000001100111 +
#1130000
0!
02
#1135000
1!
12
b00000000000000000000000001101000 +
#1140000
0!
02
#1145000
1!
12
b00000000000000000000000001101001 +
#1150000
0!
02
#1155000
1!
12
b00000000000000000000000001101010 +
#1160000
0!
02
#1165000
1!
12
b00000000000000000000000001101011 +
#1170000
0!
02
#1175000
1!
12
b00000000000000000000000001101100 +
#1180000
0!
02
#1185000
1!
12
b00000000000000000000000001101101 +
#1190000
0!
02
#1195000
1!
12
b00000000000000000000000001101110 +
#1200000
0!
02
#1205000
1!
12
b00000000000000000000000001101111 +
#1210000
0!
02
#1215000
1!
12
b00000000000000000000000001110000 +
#1220000
0!
02
#1225000
1!
12
b00000000000000000000000001110001 +
#1230000
0!
02
#1235000
1!
12
b00000000000000000000000001110010 +
#1240000
0!
02
#1245000
1!
12
b00000000000000000000000001110011 +
#1250000
0!
02
#1255000
1!
12
b00000000000000000000000001110100 +
#1260000
0!
02
#1265000
1!
12
b00000000000000000000000001110101 +
#1270000
0!
02
#1275000
1!
12
b00000000000000000000000001110110 +
#1280000
0!
02
#1285000
1!
12
b00000000000000000000000001110111 +
#1290000
0!
02
#1295000
1!
12
b00000000000000000000000001111000 +
#1300000
0!
02
#1305000
1!
12
b00000000000000000000000001111001 +
#1310000
0!
02
#1315000
1!
12
b00000000000000000000000001111010 +
#1320000
0!
02
#1325000
1!
12
b00000000000000000000000001111011 +
#1330000
0!
02
#1335000
1!
12
b00000000000000000000000001111100 +
#1340000
0!
02
#1345000
1!
12
b00000000000000000000000001111101 +
#1350000
0!
02
#1355000
1!
12
b00000000000000000000000001111110 +
#1360000
0!
02
#1365000
1!
12
b00000000000000000000000001111111 +
#1370000
0!
02
#1375000
1!
12
b00000000000000000000000010000000 +
#1380000
0!
02
#1385000
1!
12
b00000000000000000000000010000001 +
#1390000
0!
02
#1395000
1!
12
b00000000000000000000000010000010 +
#1400000
0!
02
#1405000
1!
12
b00000000000000000000000010000011 +
#1410000
0!
02
#1415000
1!
12
b00000000000000000000000010000100 +
#1420000
0!
02
#1425000
1!
12
b00000000000000000000000010000101 +
#1430000
0!
02
#1435000
1!
12
b00000000000000000000000010000110 +
#1440000
0!
02
#1445000
1!
12
b00000000000000000000000010000111 +
#1450000
0!
02
#1455000
1!
12
b00000000000000000000000010001000 +
#1460000
0!
02
#1465000
1!
12
b00000000000000000000000010001001 +
#1470000
0!
02
#1475000
1!
12
b00000000000000000000000010001010 +
#1480000
0!
02
#1485000
1!
12
b00000000000000000000000010001011 +
#1490000
0!
02
#1495000
1!
12
b00000000000000000000000010001100 +
#1500000
0!
02
#1505000
1!
12
b00000000000000000000000010001101 +
#1510000
0!
02
#1515000
1!
12
b00000000000000000000000010001110 +
#1520000
0!
02
#1525000
1!
12
b00000000000000000000000010001111 +
#1530000
0!
02
#1535000
1!
12
b00000000000000000000000010010000 +
#1540000
0!
02
#1545000
1!
12
b00000000000000000000000010010001 +
#1550000
0!
02
#1555000
1!
12
b00000000000000000000000010010010 +
#1560000
0!
02
#1565000
1!
12
b00000000000000000000000010010011 +
#1570000
0!
02
#1575000
1!
12
b00000000000000000000000010010100 +
#1580000
0!
02
#1585000
1!
12
b00000000000000000000000010010101 +
#1590000
0!
02
#1595000
1!
12
b00000000000000000000000010010110 +
#1600000
0!
02
#1605000
1!
12
b00000000000000000000000010010111 +
#1610000
0!
02
#1615000
1!
12
b00000000000000000000000010011000 +
#1620000
0!
02
#1625000
1!
12
b00000000000000000000000010011001 +
#1630000
0!
02
#1635000
1!
12
b00000000000000000000000010011010 +
#1640000
0!
02
#1645000
1!
12
b00000000000000000000000010011011 +
#1650000
0!
02
#1655000
1!
12
b00000000000000000000000010011100 +
#1660000
0!
02
#1665000
1!
12
b00000000000000000000000010011101 +
#1670000
0!
02
#1675000
1!
12
b00000000000000000000000010011110 +
#1680000
0!
02
#1685000
1!
12
b00000000000000000000000010011111 +
#1690000
0!
02
#1695000
1!
12
b00000000000000000000000010100000 +
#1700000
0!
02
#1705000
1!
12
b00000000000000000000000010100001 +
#1710000
0!
02
#1715000
1!
12
b00000000000000000000000010100010 +
#1720000
0!
02
#1725000
1!
12
b00000000000000000000000010100011 +
#1730000
0!
02
#1735000
1!
12
b00000000000000000000000010100100 +
#1740000
0!
02
#1745000
1!
12
b00000000000000000000000010100101 +
#1750000
0!
02
#1755000
1!
12
b00000000000000000000000010100110 +
#1760000
0!
02
#1765000
1!
12
b00000000000000000000000010100111 +
#1770000
0!
02
#1775000
1!
12
b00000000000000000000000010101000 +
#1780000
0!
02
#1785000
1!
12
b00000000000000000000000010101001 +
#1790000
0!
02
#1795000
1!
12
b00000000000000000000000010101010 +
#1800000
0!
02
#1805000
1!
12
b00000000000000000000000010101011 +
#1810000
0!
02
#1815000
1!
12
b00000000000000000000000010101100 +
#1820000
0!
02
#1825000
1!
12
b00000000000000000000000010101101 +
#1830000
0!
02
#1835000
1!
12
b00000000000000000000000010101110 +
#1840000
0!
02
#1845000
1!
12
b00000000000000000000000010101111 +
#1850000
0!
02
#1855000
1!
12
b00000000000000000000000010110000 +
#1860000
0!
02
#1865000
1!
12
b00000000000000000000000010110001 +
#1870000
0!
02
#1875000
1!
12
b00000000000000000000000010110010 +
#1880000
0!
02
#1885000
1!
12
b00000000000000000000000010110011 +
#1890000
0!
02
#1895000
1!
12
b00000000000000000000000010110100 +
#1900000
0!
02
#1905000
1!
12
b00000000000000000000000010110101 +
#1910000
0!
02
#1915000
1!
12
b00000000000000000000000010110110 +
#1920000
0!
02
#1925000
1!
12
b00000000000000000000000010110111 +
#1930000
0!
02
#1935000
1!
12
b00000000000000000000000010111000 +
#1940000
0!
02
#1945000
1!
12
b00000000000000000000000010111001 +
#1950000
0!
02
#1955000
1!
12
b00000000000000000000000010111010 +
#1960000
0!
02
#1965000
1!
12
b00000000000000000000000010111011 +
#1970000
0!
02
#1975000
1!
12
b00000000000000000000000010111100 +
#1980000
0!
02
#1985000
1!
12
b00000000000000000000000010111101 +
#1990000
0!
02
#1995000
1!
12
b00000000000000000000000010111110 +
#2000000
0!
02
#2005000
1!
12
b00000000000000000000000010111111 +
#2010000
0!
02
#2015000
1!
12
b00000000000000000000000011000000 +
#2020000
0!
02
#2025000
1!
12
b00000000000000000000000011000001 +
#2030000
0!
02
#2035000
1!
12
b00000000000000000000000011000010 +
#2040000
0!
02
#2045000
1!
12
b00000000000000000000000011000011 +
#2050000
0!
02
#2055000
1!
12
b00000000000000000000000011000100 +
#2060000
0!
02
#2065000
1!
12
b00000000000000000000000011000101 +
#2070000
0!
02
#2075000
1!
12
b00000000000000000000000011000110 +
#2080000
0!
02
#2085000
1!
12
b00000000000000000000000011000111 +
#2090000
0!
02
#2095000
1!
12
b00000000000000000000000011001000 +
#2100000
0!
02
#2105000
1!
12
b00000000000000000000000011001001 +
#2110000
0!
02
#2115000
1!
12
b00000000000000000000000011001010 +
#2120000
0!
02
#2125000
1!
12
b00000000000000000000000011001011 +
#2130000
0!
02
#2135000
1!
12
b00000000000000000000000011001100 +
#2140000
0!
02
#2145000
1!
12
b00000000000000000000000011001101 +
#2150000
0!
02
#2155000
1!
12
b00000000000000000000000011001110 +
#2160000
0!
02
#2165000
1!
12
b00000000000000000000000011001111 +
#2170000
0!
02
#2175000
1!
12
b00000000000000000000000011010000 +
#2180000
0!
02
#2185000
1!
12
b00000000000000000000000011010001 +
#2190000
0!
02
#2195000
1!
12
b00000000000000000000000011010010 +
#2200000
0!
02
#2205000
1!
12
b00000000000000000000000011010011 +
#2210000
0!
02
#2215000
1!
12
b00000000000000000000000011010100 +
#2220000
0!
02
#2225000
1!
12
b00000000000000000000000011010101 +
#2230000
0!
02
#2235000
1!
12
b00000000000000000000000011010110 +
#2240000
0!
02
#2245000
1!
12
b00000000000000000000000011010111 +
#2250000
0!
02
#2255000
1!
12
b00000000000000000000000011011000 +
#2260000
0!
02
#2265000
1!
12
b00000000000000000000000011011001 +
#2270000
0!
02
#2275000
1!
12
b00000000000000000000000011011010 +
#2280000
0!
02
#2285000
1!
12
b00000000000000000000000011011011 +
#2290000
0!
02
#2295000
1!
12
b00000000000000000000000011011100 +
#2300000
0!
02
#2305000
1!
12
b00000000000000000000000011011101 +
#2310000
0!
02
#2315000
1!
12
b00000000000000000000000011011110 +
#2320000
0!
02
#2325000
1!
12
b00000000000000000000000011011111 +
#2330000
0!
02
#2335000
1!
12
b00000000000000000000000011100000 +
#2340000
0!
02
#2345000
1!
12
b00000000000000000000000011100001 +
#2350000
0!
02
#2355000
1!
12
b00000000000000000000000011100010 +
#2360000
0!
02
#2365000
1!
12
b00000000000000000000000011100011 +
#2370000
0!
02
#2375000
1!
12
b00000000000000000000000011100100 +
#2380000
0!
02
#2385000
1!
12
b00000000000000000000000011100101 +
#2390000
0!
02
#2395000
1!
12
b00000000000000000000000011100110 +
#2400000
0!
02
#2405000
1!
12
b00000000000000000000000011100111 +
#2410000
0!
02
#2415000
1!
12
b00000000000000000000000011101000 +
#2420000
0!
02
#2425000
1!
12
b00000000000000000000000011101001 +
#2430000
0!
02
#2435000
1!
12
b00000000000000000000000011101010 +
#2440000
0!
02
#2445000
1!
12
b00000000000000000000000011101011 +
#2450000
0!
02
#2455000
1!
12
b00000000000000000000000011101100 +
#2460000
0!
02
#2465000
1!
12
b00000000000000000000000011101101 +
#2470000
0!
02
#2475000
1!
12
b00000000000000000000000011101110 +
#2480000
0!
02
#2485000
1!
12
b00000000000000000000000011101111 +
#2490000
0!
02
#2495000
1!
12
b00000000000000000000000011110000 +
#2500000
0!
02
#2505000
1!
12
b00000000000000000000000011110001 +
#2510000
0!
02
#2515000
1!
12
b00000000000000000000000011110010 +
#2520000
0!
02
#2525000
1!
12
b00000000000000000000000011110011 +
#2530000
0!
02
#2535000
1!
12
b00000000000000000000000011110100 +
#2540000
0!
02
#2545000
1!
12
b00000000000000000000000011110101 +
#2550000
0!
02
#2555000
1!
12
b00000000000000000000000011110110 +
#2560000
0!
02
#2565000
1!
12
b00000000000000000000000011110111 +
#2570000
0!
02
#2575000
1!
12
b00000000000000000000000011111000 +
#2580000
0!
02
#2585000
1!
12
b00000000000000000000000011111001 +
#2590000
0!
02
#2595000
1!
12
b00000000000000000000000011111010 +
#2600000
0!
02
#2605000
1!
12
b00000000000000000000000011111011 +
#2610000
0!
02
#2615000
1!
12
b00000000000000000000000011111100 +
#2620000
0!
02
#2625000
1!
12
b00000000000000000000000011111101 +
#2630000
0!
02
#2635000
1!
12
b00000000000000000000000011111110 +
#2640000
0!
02
#2645000
1!
12
b00000000000000000000000011111111 +
#2650000
0!
02
#2655000
1!
12
b00000000000000000000000100000000 +
#2660000
0!
02
#2665000
1!
12
b00000000000000000000000100000001 +
#2670000
0!
02
#2675000
1!
12
b00000000000000000000000100000010 +
#2680000
0!
02
#2685000
1!
12
b00000000000000000000000100000011 +
#2690000
0!
02
#2695000
1!
12
b00000000000000000000000100000100 +
#2700000
0!
02
#2705000
1!
12
b00000000000000000000000100000101 +
#2710000
0!
02
#2715000
1!
12
b00000000000000000000000100000110 +
#2720000
0!
02
#2725000
1!
12
b00000000000000000000000100000111 +
#2730000
0!
02
#2735000
1!
12
b00000000000000000000000100001000 +
#2740000
0!
02
#2745000
1!
12
b00000000000000000000000100001001 +
#2750000
0!
02
#2755000
1!
12
b00000000000000000000000100001010 +
#2760000
0!
02
#2765000
1!
12
b00000000000000000000000100001011 +
#2770000
0!
02
#2775000
1!
12
b00000000000000000000000100001100 +
#2780000
0!
02
#2785000
1!
12
b00000000000000000000000100001101 +
#2790000
0!
02
#2795000
1!
12
b00000000000000000000000100001110 +
#2800000
0!
02
#2805000
1!
12
b00000000000000000000000100001111 +
#2810000
0!
02
#2815000
1!
12
b00000000000000000000000100010000 +
#2820000
0!
02
#2825000
1!
12
b00000000000000000000000100010001 +
#2830000
0!
02
#2835000
1!
12
b00000000000000000000000100010010 +
#2840000
0!
02
#2845000
1!
12
b00000000000000000000000100010011 +
#2850000
0!
02
#2855000
1!
12
b00000000000000000000000100010100 +
#2860000
0!
02
#2865000
1!
12
b00000000000000000000000100010101 +
#2870000
0!
02
#2875000
1!
12
b00000000000000000000000100010110 +
#2880000
0!
02
#2885000
1!
12
b00000000000000000000000100010111 +
#2890000
0!
02
#2895000
1!
12
b00000000000000000000000100011000 +
#2900000
0!
02
#2905000
1!
12
b00000000000000000000000100011001 +
#2910000
0!
02
#2915000
1!
12
b00000000000000000000000100011010 +
#2920000
0!
02
#2925000
1!
12
b00000000000000000000000100011011 +
#2930000
0!
02
#2935000
1!
12
b00000000000000000000000100011100 +
#2940000
0!
02
#2945000
1!
12
b00000000000000000000000100011101 +
#2950000
0!
02
#2955000
1!
12
b00000000000000000000000100011110 +
#2960000
0!
02
#2965000
1!
12
b00000000000000000000000100011111 +
#2970000
0!
02
#2975000
1!
12
b00000000000000000000000100100000 +
#2980000
0!
02
#2985000
1!
12
b00000000000000000000000100100001 +
#2990000
0!
02
#2995000
1!
12
b00000000000000000000000100100010 +
#3000000
0!
02
#3005000
1!
12
b00000000000000000000000100100011 +
#3010000
0!
02
#3015000
1!
12
b00000000000000000000000100100100 +
#3020000
0!
02
#3025000
1!
12
b00000000000000000000000100100101 +
#3030000
0!
02
#3035000
1!
12
b00000000000000000000000100100110 +
#3040000
0!
02
#3045000
1!
12
b00000000000000000000000100100111 +
#3050000
0!
02
#3055000
1!
12
b00000000000000000000000100101000 +
#3060000
0!
02
#3065000
1!
12
b00000000000000000000000100101001 +
#3070000
0!
02
#3075000
1!
12
b00000000000000000000000100101010 +
#3080000
0!
02
#3085000
1!
12
b00000000000000000000000100101011 +
#3090000
0!
02
#3095000
1!
12
b00000000000000000000000100101100 +
#3100000
0!
02
#3105000
1!
12
b00000000000000000000000100101101 +
#3110000
0!
02
#3115000
1!
12
b00000000000000000000000100101110 +
#3120000
0!
02
#3125000
1!
12
b00000000000000000000000100101111 +
#3130000
0!
02
#3135000
1!
12
b00000000000000000000000100110000 +
#3140000
0!
02
#3145000
1!
12
b00000000000000000000000100110001 +
#3150000
0!
02
#3155000
1!
12
b00000000000000000000000100110010 +
#3160000
0!
02
#3165000
1!
12
b00000000000000000000000100110011 +
#3170000
0!
02
#3175000
1!
12
b00000000000000000000000100110100 +
#3180000
0!
02
#3185000
1!
12
b00000000000000000000000100110101 +
#3190000
0!
02
#3195000
1!
12
b00000000000000000000000100110110 +
#3200000
0!
02
#3205000
1!
12
b00000000000000000000000100110111 +
#3210000
0!
02
#3215000
1!
12
b00000000000000000000000100111000 +
#3220000
0!
02
#3225000
1!
12
b00000000000000000000000100111001 +
#3230000
0!
02
#3235000
1!
12
b00000000000000000000000100111010 +
#3240000
0!
02
#3245000
1!
12
b00000000000000000000000100111011 +
#3250000
0!
02
#3255000
1!
12
b00000000000000000000000100111100 +
#3260000
0!
02
#3265000
1!
12
b00000000000000000000000100111101 +
#3270000
0!
02
#3275000
1!
12
b00000000000000000000000100111110 +
#3280000
0!
02
#3285000
1!
12
b00000000000000000000000100111111 +
#3290000
0!
02
#3295000
1!
12
b00000000000000000000000101000000 +
#3300000
0!
02
#3305000
1!
12
b00000000000000000000000101000001 +
#3310000
0!
02
#3315000
1!
12
b00000000000000000000000101000010 +
#3320000
0!
02
#3325000
1!
12
b00000000000000000000000101000011 +
#3330000
0!
02
#3335000
1!
12
b00000000000000000000000101000100 +
#3340000
0!
02
#3345000
1!
12
b00000000000000000000000101000101 +
#3350000
0!
02
#3355000
1!
12
b00000000000000000000000101000110 +
#3360000
0!
02
#3365000
1!
12
b00000000000000000000000101000111 +
#3370000
0!
02
#3375000
1!
12
b00000000000000000000000101001000 +
#3380000
0!
02
#3385000
1!
12
b00000000000000000000000101001001 +
#3390000
0!
02
#3395000
1!
12
b00000000000000000000000101001010 +
#3400000
0!
02
#3405000
1!
12
b00000000000000000000000101001011 +
#3410000
0!
02
#3415000
1!
12
b00000000000000000000000101001100 +
#3420000
0!
02
#3425000
1!
12
b00000000000000000000000101001101 +
#3430000
0!
02
#3435000
1!
12
b00000000000000000000000101001110 +
#3440000
0!
02
#3445000
1!
12
b00000000000000000000000101001111 +
#3450000
0!
02
#3455000
1!
12
b00000000000000000000000101010000 +
#3460000
0!
02
#3465000
1!
12
b00000000000000000000000101010001 +
#3470000
0!
02
#3475000
1!
12
b00000000000000000000000101010010 +
#3480000
0!
02
#3485000
1!
12
b00000000000000000000000101010011 +
#3490000
0!
02
#3495000
1!
12
b00000000000000000000000101010100 +
#3500000
0!
02
#3505000
1!
12
b00000000000000000000000101010101 +
#3510000
0!
02
#3515000
1!
12
b00000000000000000000000101010110 +
#3520000
0!
02
#3525000
1!
12
b00000000000000000000000101010111 +
#3530000
0!
02
#3535000
1!
12
b00000000000000000000000101011000 +
#3540000
0!
02
#3545000
1!
12
b00000000000000000000000101011001 +
#3550000
0!
02
#3555000
1!
12
b00000000000000000000000101011010 +
#3560000
0!
02
#3565000
1!
12
b00000000000000000000000101011011 +
#3570000
0!
02
#3575000
1!
12
b00000000000000000000000101011100 +
#3580000
0!
02
#3585000
1!
12
b00000000000000000000000101011101 +
#3590000
0!
02
#3595000
1!
12
b00000000000000000000000101011110 +
#3600000
0!
02
#3605000
1!
12
b00000000000000000000000101011111 +
#3610000
0!
02
#3615000
1!
12
b00000000000000000000000101100000 +
#3620000
0!
02
#3625000
1!
12
b00000000000000000000000101100001 +
#3630000
0!
02
#3635000
1!
12
b00000000000000000000000101100010 +
#3640000
0!
02
#3645000
1!
12
b00000000000000000000000101100011 +
#3650000
0!
02
#3655000
1!
12
b00000000000000000000000101100100 +
#3660000
0!
02
#3665000
1!
12
b00000000000000000000000101100101 +
#3670000
0!
02
#3675000
1!
12
b00000000000000000000000101100110 +
#3680000
0!
02
#3685000
1!
12
b00000000000000000000000101100111 +
