norm_pool/program.out
Info: [VCS_SAVE_RESTORE_INFO] ASLR (Address Space Layout Randomization) is detected on the machine. To enable $save functionality, ASLR will be switched off and simv re-executed.
Please use '-no_save' simv switch to avoid re-execution or '-suppress=ASLR_DETECTED_INFO' to suppress this message.
Chronologic VCS simulator copyright 1991-2023
Contains Synopsys proprietary information.
Compiler version U-2023.03-SP2-1_Full64; Runtime version U-2023.03-SP2-1_Full64;  Feb 25 17:17 2025
Time=0, enable_pool=0, in_data_available=0, out_data_available=x, done_pool=1
Time=5000, enable_pool=0, in_data_available=0, out_data_available=0, done_pool=1
Test 1: No pooling (pass-through)
Time=30000, enable_pool=0, in_data_available=1, out_data_available=0, done_pool=1
Time=35000, enable_pool=0, in_data_available=1, out_data_available=1, done_pool=1
Test 1 - Pool Window Size: 0
Out[ 0]=0010, Out[ 1]=0011, Out[ 2]=0012, Out[ 3]=0013
Out[ 4]=0014, Out[ 5]=0015, Out[ 6]=0016, Out[ 7]=0017
Out[ 8]=0018, Out[ 9]=0019, Out[10]=001a, Out[11]=001b
Out[12]=001c, Out[13]=001d, Out[14]=001e, Out[15]=001f
Out[16]=0020, Out[17]=0021, Out[18]=0022, Out[19]=0023
Out[20]=0024, Out[21]=0025, Out[22]=0026, Out[23]=0027
Out[24]=0028, Out[25]=0029, Out[26]=002a, Out[27]=002b
Out[28]=002c, Out[29]=002d, Out[30]=002e, Out[31]=002f

Test 2: Pool window size = 1
Time=66000, enable_pool=1, in_data_available=1, out_data_available=0, done_pool=0
Time=75000, enable_pool=1, in_data_available=1, out_data_available=1, done_pool=0
Test 2 - Pool Window Size: 1
Out[ 0]=0020, Out[ 1]=0021, Out[ 2]=0022, Out[ 3]=0023
Out[ 4]=0024, Out[ 5]=0025, Out[ 6]=0026, Out[ 7]=0027
Out[ 8]=0028, Out[ 9]=0029, Out[10]=002a, Out[11]=002b
Out[12]=002c, Out[13]=002d, Out[14]=002e, Out[15]=002f
Out[16]=0030, Out[17]=0031, Out[18]=0032, Out[19]=0033
Out[20]=0034, Out[21]=0035, Out[22]=0036, Out[23]=0037
Out[24]=0038, Out[25]=0039, Out[26]=003a, Out[27]=003b
Out[28]=003c, Out[29]=003d, Out[30]=003e, Out[31]=003f

Test 3: Pool window size = 2
Test 3 - Pool Window Size: 2
Out[ 0]=1818, Out[ 1]=0021, Out[ 2]=0022, Out[ 3]=0023
Out[ 4]=0024, Out[ 5]=0025, Out[ 6]=0026, Out[ 7]=0027
Out[ 8]=0028, Out[ 9]=0029, Out[10]=002a, Out[11]=002b
Out[12]=002c, Out[13]=002d, Out[14]=002e, Out[15]=002f
Out[16]=0030, Out[17]=0031, Out[18]=0032, Out[19]=0033
Out[20]=0034, Out[21]=0035, Out[22]=0036, Out[23]=0037
Out[24]=0038, Out[25]=0039, Out[26]=003a, Out[27]=003b
Out[28]=003c, Out[29]=003d, Out[30]=003e, Out[31]=003f

Test 4: Pool window size = 4
Test 4 - Pool Window Size: 4
Out[ 0]=1820, Out[ 1]=0021, Out[ 2]=0022, Out[ 3]=0023
Out[ 4]=0024, Out[ 5]=0025, Out[ 6]=0026, Out[ 7]=0027
Out[ 8]=0028, Out[ 9]=0029, Out[10]=002a, Out[11]=002b
Out[12]=002c, Out[13]=002d, Out[14]=002e, Out[15]=002f
Out[16]=0030, Out[17]=0031, Out[18]=0032, Out[19]=0033
Out[20]=0034, Out[21]=0035, Out[22]=0036, Out[23]=0037
Out[24]=0038, Out[25]=0039, Out[26]=003a, Out[27]=003b
Out[28]=003c, Out[29]=003d, Out[30]=003e, Out[31]=003f

Time=395000, enable_pool=1, in_data_available=1, out_data_available=1, done_pool=1
Pooling operation completed successfully
All tests PASSED!
$finish called from file "pool_tb.v", line 230.
$finish at simulation time               476000
           V C S   S i m u l a t i o n   R e p o r t 
Time: 476000 ps
CPU Time:      0.290 seconds;       Data structure size:   0.0Mb
Tue Feb 25 17:17:24 2025
