norm_pool/program.out
Info: [VCS_SAVE_RESTORE_INFO] ASLR (Address Space Layout Randomization) is detected on the machine. To enable $save functionality, ASLR will be switched off and simv re-executed.
Please use '-no_save' simv switch to avoid re-execution or '-suppress=ASLR_DETECTED_INFO' to suppress this message.
Chronologic VCS simulator copyright 1991-2023
Contains Synopsys proprietary information.
Compiler version U-2023.03-SP2-1_Full64; Runtime version U-2023.03-SP2-1_Full64;  Feb 18 13:22 2025

--- Test Case 1: Module Disabled ---
Stats: Mean = 51.250000 (         51), Variance = 778.750000, Inv_Var = 0.035834 (    1)
Expected calculation debug:
  mean=51, inv_var=1
  First few calculations:
  Element 0: input=6, after mean=-45, final=6
  Element 1: input=44, after mean=-7, final=44
  Element 2: input=19, after mean=-32, final=19
Output captured at cycle          1

Results for Test Case 1: Module Disabled
Input array:
       6       44       19       73 
      88       92       30       82 
      62       13       11       48 
      76       76       50       50 

Expected output array:
       6       44       19       73 
      88       92       30       82 
      62       13       11       48 
      76       76       50       50 

Actual output array:
       6       44       19       73 
      88       92       30       82 
      62       13       11       48 
      76       76       50       50 

Test Case 1: Module Disabled Passed!

--- Test Case 2: Basic Normalization ---
Stats: Mean = 45.500000 (         45), Variance = 791.125000, Inv_Var = 0.035553 (    1)
Expected calculation debug:
  mean=45, inv_var=1
  First few calculations:
  Element 0: input=45, after mean=0, final=0
  Element 1: input=15, after mean=-30, final=-30
  Element 2: input=4, after mean=-41, final=-41
Output captured at cycle          3

Results for Test Case 2: Basic Normalization
Input array:
      45       15        4       11 
      23       72       33       39 
      49       96       91       55 
      92       44       31       28 

Expected output array:
       0      -30      -41      -34 
     -22       27      -12       -6 
       4       51       46       10 
      47       -1      -14      -17 

Actual output array:
       0      -30      -41      -34 
     -22       27      -12       -6 
       4       51       46       10 
      47       -1      -14      -17 

Test Case 2: Basic Normalization Passed!

--- Test Case 3: Alternating Validity Mask ---
Stats: Mean = 62.500000 (         62), Variance = 546.750000, Inv_Var = 0.042767 (    1)
Expected calculation debug:
  mean=62, inv_var=1
  First few calculations:
  Element 1: input=63, after mean=1, final=1
Output captured at cycle          3

Results for Test Case 3: Alternating Validity Mask
Input array:
       1       63       38       27 
      60       71       70       85 
      87       71       91       68 
      80       92        4       23 

Expected output array:
       1        1       38      -35 
      60        9       70       23 
      87        9       91        6 
      80       30        4      -39 

Actual output array:
       1        1       38      -35 
      60        9       70       23 
      87        9       91        6 
      80       30        4      -39 

Test Case 3: Alternating Validity Mask Passed!

--- Test Case 4: Random Validity Mask ---
Stats: Mean = 53.750000 (         53), Variance = 870.500000, Inv_Var = 0.033893 (    1)
Expected calculation debug:
  mean=53, inv_var=1
  First few calculations:
  Element 0: input=97, after mean=44, final=44
  Element 2: input=78, after mean=25, final=25
Output captured at cycle          3

Results for Test Case 4: Random Validity Mask
Input array:
      97        5       78       96 
      65       20        1       27 
      70       77        5       50 
      33       52       50       11 

Expected output array:
      44        5       25       96 
      65      -33        1      -26 
      17       24        5       50 
      33       52       -3      -42 

Actual output array:
      44        5       25       96 
      65      -33        1      -26 
      17       24        5       50 
      33       52       -3      -42 

Test Case 4: Random Validity Mask Passed!

All tests completed!
$finish called from file "norm_tb.v", line 455.
$finish at simulation time               975000
           V C S   S i m u l a t i o n   R e p o r t 
Time: 975000 ps
CPU Time:      0.280 seconds;       Data structure size:   0.0Mb
Tue Feb 18 13:22:10 2025
